elevator_fsm.vcd
$date
	Fri Jul 04 10:48:19 2025
$end
$version
	Icarus Verilog
$end
$timescale
	1ps
$end
$scope module elevator_fsm_tb $end
$var wire 1 ! pwm_out $end
$var wire 1 " moving_up $end
$var wire 1 # moving_down $end
$var wire 10 $ floor_requests [9:0] $end
$var wire 1 % door_open $end
$var wire 4 & current_floor [3:0] $end
$var reg 1 ' clk $end
$var reg 1 ( door_obstruction $end
$var reg 1 ) emergency_stop $end
$var reg 10 * floor_sensors [9:0] $end
$var reg 10 + new_requests [9:0] $end
$var reg 1 , overweight $end
$var reg 1 - reset $end
$scope module dut $end
$var wire 1 ' clk $end
$var wire 4 . current_floor [3:0] $end
$var wire 1 ( door_obstruction $end
$var wire 1 ) emergency_stop $end
$var wire 10 / floor_requests [9:0] $end
$var wire 10 0 floor_sensors [9:0] $end
$var wire 10 1 new_requests [9:0] $end
$var wire 1 , overweight $end
$var wire 1 - reset $end
$var wire 10 2 reqs [9:0] $end
$var wire 1 ! pwm_out $end
$var wire 8 3 pwm_duty [7:0] $end
$var wire 1 " moving_up $end
$var wire 1 # moving_down $end
$var wire 1 4 has_below $end
$var wire 1 5 has_above $end
$var wire 4 6 floor [3:0] $end
$var wire 1 % door_open $end
$var wire 1 7 clear_request $end
$scope module checker $end
$var wire 10 8 floor_requests [9:0] $end
$var wire 4 9 current_floor [3:0] $end
$var reg 1 5 has_request_above $end
$var reg 1 4 has_request_below $end
$var integer 32 : i [31:0] $end
$upscope $end
$scope module controller $end
$var wire 1 ' clk $end
$var wire 1 ( door_obstruction $end
$var wire 1 ) emergency_stop $end
$var wire 1 5 has_request_above $end
$var wire 1 4 has_request_below $end
$var wire 1 , overweight $end
$var wire 1 - reset $end
$var wire 10 ; floor_requests [9:0] $end
$var wire 4 < current_floor [3:0] $end
$var reg 1 7 clear_current_request $end
$var reg 1 % door_open $end
$var reg 1 # moving_down $end
$var reg 1 " moving_up $end
$var reg 4 = next_state [3:0] $end
$var reg 8 > pwm_duty [7:0] $end
$var reg 4 ? state [3:0] $end
$var reg 8 @ timer [7:0] $end
$upscope $end
$scope module detector $end
$var wire 10 A floor_sensors [9:0] $end
$var reg 4 B current_floor [3:0] $end
$var integer 32 C i [31:0] $end
$upscope $end
$scope module handler $end
$var wire 1 7 clear_current_request $end
$var wire 1 ' clk $end
$var wire 4 D current_floor [3:0] $end
$var wire 10 E new_requests [9:0] $end
$var wire 1 - reset $end
$var reg 10 F floor_requests [9:0] $end
$upscope $end
$scope module pwm_unit $end
$var wire 1 ' clk $end
$var wire 8 G duty_cycle [7:0] $end
$var wire 1 - reset $end
$var reg 8 H counter [7:0] $end
$var reg 1 ! pwm_out $end
$upscope $end
$upscope $end
$scope task set_floor $end
$var reg 4 I floor [3:0] $end
$upscope $end
$upscope $end
$enddefinitions $end
#0
$dumpvars
bx I
b0 H
b0 G
b0 F
b0 E
b0 D
b1010 C
b0 B
b0 A
b0 @
b0 ?
b0 >
b0 =
b0 <
b0 ;
b1010 :
b0 9
b0 8
07
b0 6
05
04
b0 3
b0 2
b0 1
b0 0
b0 /
b0 .
1-
0,
b0 +
b0 *
0)
0(
0'
b0 &
0%
b0 $
0#
0"
0!
$end
#5000
1'
#10000
0'
#15000
1'
#20000
b1010 C
0'
b1 *
b1 0
b1 A
b0 I
0-
#25000
b1 H
1'
#30000
0'
b1000 +
b1000 1
b1000 E
#35000
15
b1010 :
b1 =
b1000 $
b1000 /
b1000 2
b1000 8
b1000 ;
b1000 F
b10 H
1'
#40000
0'
b0 +
b0 1
b0 E
#45000
b10 =
b11 H
b1 ?
1'
#50000
0'
#55000
b10110100 3
b10110100 >
b10110100 G
1"
b10 ?
b100 H
1'
#60000
0'
#65000
1!
b101 H
1'
#70000
0'
#75000
b110 H
1'
#80000
0'
#85000
b111 H
1'
#90000
0'
#95000
b1000 H
1'
#100000
0'
#105000
b1001 H
1'
#110000
0'
#115000
b1010 H
1'
#120000
0'
#125000
b1011 H
1'
#130000
0'
#135000
b1100 H
1'
#140000
0'
#145000
b1101 H
1'
#150000
0'
#155000
b1110 H
1'
#160000
0'
#165000
b1111 H
1'
#170000
0'
#175000
b10000 H
1'
#180000
0'
#185000
b10001 H
1'
#190000
b1010 :
15
b1 &
b1 .
b1 6
b1 9
b1 <
b1 B
b1 D
b1010 C
0'
b10 *
b10 0
b10 A
b1 I
#195000
b10010 H
1'
#200000
0'
#205000
b10011 H
1'
#210000
0'
#215000
b10100 H
1'
#220000
0'
#225000
b10101 H
1'
#230000
0'
#235000
b10110 H
1'
#240000
0'
#245000
b10111 H
1'
#250000
0'
#255000
b11000 H
1'
#260000
0'
#265000
b11001 H
1'
#270000
0'
#275000
b11010 H
1'
#280000
0'
#285000
b11011 H
1'
#290000
b1010 :
15
b1010 C
b10 &
b10 .
b10 6
b10 9
b10 <
b10 B
b10 D
0'
b100 *
b100 0
b100 A
b10 I
#295000
b11100 H
1'
#300000
0'
#305000
b11101 H
1'
#310000
0'
#315000
b11110 H
1'
#320000
0'
#325000
b11111 H
1'
#330000
0'
#335000
b100000 H
1'
#340000
0'
#345000
b100001 H
1'
#350000
0'
#355000
b100010 H
1'
#360000
0'
#365000
b100011 H
1'
#370000
0'
#375000
b100100 H
1'
#380000
0'
#385000
b100101 H
1'
#390000
b1010 :
05
b100 =
b1010 C
b11 &
b11 .
b11 6
b11 9
b11 <
b11 B
b11 D
0'
b1000 *
b1000 0
b1000 A
b11 I
#395000
b101 =
17
1%
b0 3
b0 >
b0 G
0"
b100 ?
b100110 H
1'
#400000
b101 =
0'
1(
#405000
07
1%
b1010 :
0!
b100111 H
b101 ?
b0 $
b0 /
b0 2
b0 8
b0 ;
b0 F
1'
#410000
0'
#415000
b1 @
b101000 H
1'
#420000
0'
#425000
b101001 H
b10 @
1'
#430000
0'
#435000
b11 @
b101010 H
1'
#440000
0'
#445000
b101011 H
b100 @
1'
#450000
0'
0(
#455000
b101 @
b101100 H
1'
#460000
0'
#465000
b101101 H
b110 @
1'
#470000
0'
#475000
b111 @
b101110 H
1'
#480000
0'
#485000
b101111 H
b1000 @
1'
#490000
0'
#495000
b1001 @
b110000 H
1'
#500000
0'
b1000000 +
b1000000 1
b1000000 E
#505000
15
b1010 :
b110001 H
b1010 @
b1000000 $
b1000000 /
b1000000 2
b1000000 8
b1000000 ;
b1000000 F
1'
#510000
0'
b0 +
b0 1
b0 E
#515000
b1011 @
b110010 H
1'
#520000
0'
#525000
b110011 H
b1100 @
1'
#530000
0'
#535000
b1101 @
b110100 H
1'
#540000
0'
#545000
b110101 H
b1110 @
1'
#550000
0'
#555000
b1111 @
b110110 H
1'
#560000
0'
#565000
b110111 H
b10000 @
1'
#570000
0'
#575000
b10001 @
b111000 H
1'
#580000
0'
#585000
b111001 H
b10010 @
1'
#590000
0'
#595000
b10011 @
b111010 H
1'
#600000
0'
#605000
b111011 H
b10100 @
1'
#610000
0'
#615000
b10101 @
b111100 H
1'
#620000
0'
#625000
b111101 H
b10110 @
1'
#630000
0'
#635000
b10111 @
b111110 H
1'
#640000
0'
#645000
b111111 H
b11000 @
1'
#650000
0'
#655000
b11001 @
b1000000 H
1'
#660000
b1010 :
15
b1010 C
b100 &
b100 .
b100 6
b100 9
b100 <
b100 B
b100 D
0'
b10000 *
b10000 0
b10000 A
b100 I
#665000
b1000001 H
b11010 @
1'
#670000
0'
#675000
b11011 @
b1000010 H
1'
#680000
0'
#685000
b1000011 H
b11100 @
1'
#690000
0'
#695000
b11101 @
b1000100 H
1'
#700000
0'
#705000
b1000101 H
b11110 @
1'
#710000
0'
#715000
b11111 @
b1000110 H
1'
#720000
0'
#725000
b1000111 H
b100000 @
1'
#730000
0'
#735000
b100001 @
b1001000 H
1'
#740000
0'
#745000
b1001001 H
b100010 @
1'
#750000
0'
#755000
b100011 @
b1001010 H
1'
#760000
b1010 :
15
b1010 C
b101 &
b101 .
b101 6
b101 9
b101 <
b101 B
b101 D
0'
b100000 *
b100000 0
b100000 A
b101 I
#765000
b1001011 H
b100100 @
1'
#770000
0'
#775000
b100101 @
b1001100 H
1'
#780000
0'
#785000
b1001101 H
b100110 @
1'
#790000
0'
#795000
b100111 @
b1001110 H
1'
#800000
0'
#805000
b1001111 H
b101000 @
1'
#810000
0'
#815000
b101001 @
b1010000 H
1'
#820000
0'
#825000
b1010001 H
b101010 @
1'
#830000
0'
#835000
b101011 @
b1010010 H
1'
#840000
0'
#845000
b1010011 H
b101100 @
1'
#850000
0'
#855000
b101101 @
b1010100 H
1'
#860000
b1010 :
05
b1010 C
b110 &
b110 .
b110 6
b110 9
b110 <
b110 B
b110 D
0'
b1000000 *
b1000000 0
b1000000 A
b110 I
#865000
b1010101 H
b101110 @
1'
#870000
0'
1,
#875000
b101111 @
b1010110 H
1'
#880000
0'
#885000
b1010111 H
b110000 @
1'
#890000
0'
#895000
b110001 @
b1011000 H
1'
#900000
0'
#905000
b110 =
b1011001 H
b110010 @
1'
#910000
0'
#915000
0%
b1000 =
b110 ?
b110011 @
b1011010 H
1'
#920000
b1 =
0'
0,
#925000
b100 =
b1011011 H
b0 @
b1 ?
1'
#930000
0'
#935000
b101 =
17
1%
b100 ?
b1011100 H
1'
#940000
0'
#945000
07
1%
b1010 :
b1011101 H
b101 ?
b0 $
b0 /
b0 2
b0 8
b0 ;
b0 F
1'
#950000
0'
b1000000000 +
b1000000000 1
b1000000000 E
#955000
15
b1010 :
b1000000000 $
b1000000000 /
b1000000000 2
b1000000000 8
b1000000000 ;
b1000000000 F
b1 @
b1011110 H
1'
#960000
0'
b0 +
b0 1
b0 E
#965000
b1011111 H
b10 @
1'
#970000
0'
#975000
b11 @
b1100000 H
1'
#980000
0'
#985000
b1100001 H
b100 @
1'
#990000
0'
#995000
b101 @
b1100010 H
1'
#1000000
0'
#1005000
b1100011 H
b110 @
1'
#1010000
0'
#1015000
b111 @
b1100100 H
1'
#1020000
0'
#1025000
b1100101 H
b1000 @
1'
#1030000
0'
#1035000
b1001 @
b1100110 H
1'
#1040000
b1010 :
15
b1010 C
b111 &
b111 .
b111 6
b111 9
b111 <
b111 B
b111 D
0'
b10000000 *
b10000000 0
b10000000 A
b111 I
#1045000
b1100111 H
b1010 @
1'
#1050000
0'
#1055000
b1011 @
b1101000 H
1'
#1060000
0'
#1065000
b1101001 H
b1100 @
1'
#1070000
0'
#1075000
b1101 @
b1101010 H
1'
#1080000
0'
#1085000
b1101011 H
b1110 @
1'
#1090000
0'
1)
#1095000
b1111 @
b1101100 H
1'
#1100000
0'
#1105000
b1101101 H
b10000 @
1'
#1110000
0'
#1115000
b10001 @
b1101110 H
1'
#1120000
0'
#1125000
b1101111 H
b10010 @
1'
#1130000
0'
#1135000
b10011 @
b1110000 H
1'
#1140000
0'
0)
#1145000
b1110001 H
b10100 @
1'
#1150000
0'
#1155000
b10101 @
b1110010 H
1'
#1160000
0'
#1165000
b1110011 H
b10110 @
1'
#1170000
0'
#1175000
b10111 @
b1110100 H
1'
#1180000
0'
#1185000
b1110101 H
b11000 @
1'
#1190000
0'
#1195000
b11001 @
b1110110 H
1'
#1200000
0'
#1205000
b1110111 H
b11010 @
1'
#1210000
0'
#1215000
b11011 @
b1111000 H
1'
#1220000
0'
#1225000
b1111001 H
b11100 @
1'
#1230000
0'
#1235000
b11101 @
b1111010 H
1'
#1240000
b1010 :
15
b1010 C
b1000 &
b1000 .
b1000 6
b1000 9
b1000 <
b1000 B
b1000 D
0'
b100000000 *
b100000000 0
b100000000 A
b1000 I
#1245000
b1111011 H
b11110 @
1'
#1250000
0'
#1255000
b11111 @
b1111100 H
1'
#1260000
0'
#1265000
b1111101 H
b100000 @
1'
#1270000
0'
#1275000
b100001 @
b1111110 H
1'
#1280000
0'
#1285000
b1111111 H
b100010 @
1'
#1290000
0'
#1295000
b100011 @
b10000000 H
1'
#1300000
0'
#1305000
b10000001 H
b100100 @
1'
#1310000
0'
#1315000
b100101 @
b10000010 H
1'
#1320000
0'
#1325000
b10000011 H
b100110 @
1'
#1330000
0'
#1335000
b100111 @
b10000100 H
1'
#1340000
b1010 :
05
b1010 C
b1001 &
b1001 .
b1001 6
b1001 9
b1001 <
b1001 B
b1001 D
0'
b1000000000 *
b1000000000 0
b1000000000 A
b1001 I
#1345000
b10000101 H
b101000 @
1'
#1350000
0'
#1355000
b101001 @
b10000110 H
1'
#1360000
0'
#1365000
b10000111 H
b101010 @
1'
#1370000
0'
#1375000
b101011 @
b10001000 H
1'
#1380000
0'
#1385000
b10001001 H
b101100 @
1'
#1390000
0'
#1395000
b101101 @
b10001010 H
1'
#1400000
0'
#1405000
b10001011 H
b101110 @
1'
#1410000
0'
#1415000
b101111 @
b10001100 H
1'
#1420000
0'
#1425000
b10001101 H
b110000 @
1'
#1430000
0'
#1435000
b110001 @
b10001110 H
1'
#1440000
0'
#1445000
b110 =
b10001111 H
b110010 @
1'
#1450000
0'
#1455000
0%
b1 =
b110 ?
b110011 @
b10010000 H
1'
#1460000
0'
#1465000
b100 =
b10010001 H
b0 @
b1 ?
1'
#1470000
0'
#1475000
b101 =
17
1%
b100 ?
b10010010 H
1'
#1480000
0'
#1485000
07
1%
b1010 :
b10010011 H
b101 ?
b0 $
b0 /
b0 2
b0 8
b0 ;
b0 F
1'
#1490000
0'
#1495000
b1 @
b10010100 H
1'
#1500000
0'
#1505000
b10010101 H
b10 @
1'
#1510000
0'
#1515000
b11 @
b10010110 H
1'
#1520000
0'
#1525000
b10010111 H
b100 @
1'
#1530000
0'
#1535000
b101 @
b10011000 H
1'
